{
    "/js/velocity.js": "/js/velocity.js?id=217acc6d9511064cb6f2",
    "/css/velocity-admin.css": "/css/velocity-admin.css?id=612d35e452446366eef7",
    "/css/velocity.css": "/css/velocity.css?id=494f7330df616e1ba3db"
}
